{
	"info": {
		"_postman_id": "50d18664-9845-4952-9600-24f46266557a",
		"name": "iban-validator",
		"description": "IBAN Validator collection",
		"schema": "https://schema.getpostman.com/json/collection/v2.1.0/collection.json"
	},
	"item": [
		{
			"name": "001.Check Health",
			"request": {
				"method": "GET",
				"header": [],
				"url": {
					"raw": "http://{{hostname}}:{{port}}/actuator/health",
					"protocol": "http",
					"host": [
						"{{hostname}}"
					],
					"port": "{{port}}",
					"path": [
						"actuator",
						"health"
					]
				}
			},
			"response": []
		},
		{
			"name": "100.Validate correct IBAN",
			"request": {
				"method": "POST",
				"header": [
					{
						"key": "Content-Type",
						"name": "Content-Type",
						"value": "application/json",
						"type": "text"
					},
					{
						"key": "x-client-name",
						"value": "postman_test",
						"type": "text"
					}
				],
				"body": {
					"mode": "raw",
					"raw": "{\n\t\"iban\": \"AT611904300234573201\"\n}",
					"options": {
						"raw": {
							"language": "json"
						}
					}
				},
				"url": {
					"raw": "http://{{hostname}}:{{port}}/api/iban",
					"protocol": "http",
					"host": [
						"{{hostname}}"
					],
					"port": "{{port}}",
					"path": [
						"api",
						"iban"
					]
				}
			},
			"response": []
		},
		{
			"name": "103.Validate correct formatted IBAN",
			"request": {
				"method": "POST",
				"header": [
					{
						"key": "Content-Type",
						"name": "Content-Type",
						"type": "text",
						"value": "application/json"
					},
					{
						"key": "x-client-name",
						"type": "text",
						"value": "postman_test"
					}
				],
				"body": {
					"mode": "raw",
					"raw": "{\n\t\"iban\": \"DE89 3704 0044 0532 0130 00\"\n}",
					"options": {
						"raw": {
							"language": "json"
						}
					}
				},
				"url": {
					"raw": "http://{{hostname}}:{{port}}/api/iban",
					"protocol": "http",
					"host": [
						"{{hostname}}"
					],
					"port": "{{port}}",
					"path": [
						"api",
						"iban"
					]
				}
			},
			"response": []
		},
		{
			"name": "110.Validate incorrect IBAN",
			"request": {
				"method": "POST",
				"header": [
					{
						"key": "Content-Type",
						"name": "Content-Type",
						"type": "text",
						"value": "application/json"
					},
					{
						"key": "x-client-name",
						"type": "text",
						"value": "postman_test"
					}
				],
				"body": {
					"mode": "raw",
					"raw": "{\n\t\"iban\": \"AT611904398765432101\"\n}",
					"options": {
						"raw": {
							"language": "json"
						}
					}
				},
				"url": {
					"raw": "http://{{hostname}}:{{port}}/api/iban",
					"protocol": "http",
					"host": [
						"{{hostname}}"
					],
					"port": "{{port}}",
					"path": [
						"api",
						"iban"
					]
				}
			},
			"response": []
		},
		{
			"name": "113.Validate incorrect formatted IBAN Copy",
			"request": {
				"method": "POST",
				"header": [
					{
						"key": "Content-Type",
						"name": "Content-Type",
						"type": "text",
						"value": "application/json"
					},
					{
						"key": "x-client-name",
						"type": "text",
						"value": "postman_test"
					}
				],
				"body": {
					"mode": "raw",
					"raw": "{\n\t\"iban\": \"DE89 3704 0044 0532 0130 00\"\n}",
					"options": {
						"raw": {
							"language": "json"
						}
					}
				},
				"url": {
					"raw": "http://{{hostname}}:{{port}}/api/iban",
					"protocol": "http",
					"host": [
						"{{hostname}}"
					],
					"port": "{{port}}",
					"path": [
						"api",
						"iban"
					]
				}
			},
			"response": []
		},
		{
			"name": "130.Forget to send header x-client-name",
			"request": {
				"method": "POST",
				"header": [
					{
						"key": "Content-Type",
						"name": "Content-Type",
						"type": "text",
						"value": "application/json"
					}
				],
				"body": {
					"mode": "raw",
					"raw": "{\n\t\"iban\": \"AT611904398765432101\"\n}",
					"options": {
						"raw": {
							"language": "json"
						}
					}
				},
				"url": {
					"raw": "http://{{hostname}}:{{port}}/api/iban",
					"protocol": "http",
					"host": [
						"{{hostname}}"
					],
					"port": "{{port}}",
					"path": [
						"api",
						"iban"
					]
				}
			},
			"response": []
		}
	],
	"variable": [
		{
			"id": "c74bca59-0f74-474c-985b-7662cdfb2d09",
			"key": "hostname",
			"value": "localhost",
			"type": "string"
		},
		{
			"id": "ed59cd33-2cd4-4b55-bd04-a4fc5fb6b3e4",
			"key": "port",
			"value": "8083",
			"type": "string"
		}
	],
	"protocolProfileBehavior": {}
}